{
  "appName": {
    "message": "Cryptocurency Realtime",
    "description": "Cryptocurency Realtime Newtab"
  },
  "appDescription": {
    "message": "Ctrl+T to open, CTRL+W to close",
    "description": "Tracking price of cryptocurency in newtab. Ctrl+T to open, CTRL+W to close"
  }
}
